{
    "apiVersion": "extensions/v1beta1",
    "kind": "Deployment",
    "metadata": {
        "annotations": {
            "deployment.kubernetes.io/revision": "1",
            "alauda.io/creator": "aiyijing",
            "alauda.io/updated-at": ""
        },
        "creationTimestamp": "2020-03-05T04:31:52Z",
        "generation": 1,
        "labels": {
            "run": "nginx"
        },
        "name": "nginx",
        "namespace": "aiyijing-test",
        "resourceVersion": "66249882",
        "selfLink": "/apis/extensions/v1beta1/namespaces/aiyijing-test/deployments/nginx",
        "uid": "3c7d2600-5e9a-11ea-aa2e-52540011a7a8"
    },
    "spec": {
        "progressDeadlineSeconds": 600,
        "replicas": 1,
        "revisionHistoryLimit": 10,
        "selector": {
            "matchLabels": {
                "run": "nginx"
            }
        },
        "strategy": {
            "rollingUpdate": {
                "maxSurge": "25%",
                "maxUnavailable": "25%"
            },
            "type": "RollingUpdate"
        },
        "template": {
            "metadata": {
                "creationTimestamp": null,
                "labels": {
                    "run": "nginx"
                },
                "annotations": {
                    "alauda.io/creator": "aiyijing"
                }
            },
            "spec": {
                "containers": [
                    {
                        "args": [
                            "deployment"
                        ],
                        "image": "nginx",
                        "imagePullPolicy": "Always",
                        "name": "nginx",
                        "resources": {},
                        "terminationMessagePath": "/dev/termination-log",
                        "terminationMessagePolicy": "File"
                    }
                ],
                "dnsPolicy": "ClusterFirst",
                "restartPolicy": "Always",
                "schedulerName": "default-scheduler",
                "securityContext": {},
                "terminationGracePeriodSeconds": 30
            }
        }
    }
}
